{
    "ATOL": 1e-15,
    "Delta": 0.01,
    "RTOL": 1e-15,
    "T_0": 0,
    "Tmax": 0.5,
    "concentrations": {
        "X-D": 1.001,
        "X-L": 1
    },
    "rates": {
        "R1": 1,
        "R2": 1,
        "R3": 0.5,
        "R4": 0.5,
        "R5": 0.3
    },
    "reactions": {
        "R1": "-> X-L",
        "R2": "-> X-D",
        "R3": "X-L -> 2 X-L",
        "R4": "X-D -> 2 X-D",
        "R5": "X-D + X-L ->"
    },
    "version": 0.1
}
